…
4\. Отсортировали точки доступа по интервалу времени, в течение которого
они находились на связи, по убыванию.

``` r
ap_tidy <- ap_tidy %>%
  mutate(Connection_duration = as.numeric(difftime(`Last time seen`, 
                                                   `First time seen`, 
                                                   units = "mins")))
ap_sorted_by_time <- ap_tidy %>% arrange(desc(Connection_duration))
ap_tidy %>% arrange(desc(Connection_duration)) %>% print()
```

    # A tibble: 167 × 17
       BSSID    `First time seen`   `Last time seen`    channel Speed Privacy Cipher
       <chr>    <dttm>              <dttm>                <int> <dbl> <chr>   <chr> 
     1 00:25:0… 2023-07-28 09:13:06 2023-07-28 11:56:21      44    -1 OPN     <NA>  
     2 E8:28:C… 2023-07-28 09:13:09 2023-07-28 11:56:05      11   130 OPN     <NA>  
     3 E8:28:C… 2023-07-28 09:13:03 2023-07-28 11:55:38       6   130 OPN     <NA>  
     4 08:3A:2… 2023-07-28 09:13:27 2023-07-28 11:55:53      14    -1 WPA     <NA>  
     5 6E:C7:E… 2023-07-28 09:13:03 2023-07-28 11:55:12       1   130 WPA2    CCMP  
     6 E8:28:C… 2023-07-28 09:13:06 2023-07-28 11:55:12       6   130 OPN     <NA>  
     7 E8:28:C… 2023-07-28 09:13:06 2023-07-28 11:55:11       6   130 OPN     <NA>  
     8 48:5B:3… 2023-07-28 09:13:06 2023-07-28 11:55:11       1   270 WPA2    CCMP  
     9 E8:28:C… 2023-07-28 09:13:06 2023-07-28 11:55:10       6    -1 OPN     <NA>  
    10 8E:55:4… 2023-07-28 09:13:06 2023-07-28 11:55:09       6    65 WPA2    CCMP  
    # ℹ 157 more rows
    # ℹ 10 more variables: Authentication <chr>, Power <int>, beacons <int>,
    #   IV <int>, `LAN IP` <chr>, `ID-length` <int>, ESSID <chr>, Key <lgl>,
    #   OUI <chr>, Connection_duration <dbl>
…
6\. Отсортировали точки доступа по частоте отправки запросов (beacons) в
единицу времени по их убыванию

``` r
ap_tidy %>%
      mutate(Beacon_rate = beacons / Connection_duration) %>%
      arrange(desc(Beacon_rate)) %>%
      select(BSSID, ESSID, beacons, Connection_duration, Beacon_rate)
```

    # A tibble: 167 × 5
       BSSID             ESSID               beacons Connection_duration Beacon_rate
       <chr>             <chr>                 <int>               <dbl>       <dbl>
     1 76:E4:ED:B0:5C:9A Инет от Путина            1                   0         Inf
     2 C2:B5:D7:7F:07:A8 DIRECT-a8-HP M227f…       1                   0         Inf
     3 E8:28:C1:DE:47:D1 <NA>                      1                   0         Inf
     4 A2:FE:FF:B8:9B:C9 Christie’s                1                   0         Inf
     5 BA:2A:7A:DD:38:3E Айфон (Oleg)              1                   0         Inf
     6 76:5E:F3:F9:A5:1C Redmi 9C NFC              1                   0         Inf
     7 00:03:7F:12:34:56 MT_FREE                   1                   0         Inf
     8 E0:D9:E3:49:00:B1 <NA>                      1                   0         Inf
     9 E8:28:C1:DC:BD:52 MIREA_HOTSPOT             1                   0         Inf
    10 00:26:CB:AA:62:72 GIVC                      1                   0         Inf
    # ℹ 157 more rows
…
