…
    # A tibble: 1 × 2
      name        height
      <chr>        <int>
    1 Yarael Poof    264

6\. Найти всех персонажей ниже 170

``` r
starwars %>%
  filter(height < 170) %>%
  select(name, height)
```

    # A tibble: 22 × 2
       name                  height
       <chr>                  <int>
     1 C-3PO                    167
     2 R2-D2                     96
     3 Leia Organa              150
     4 Beru Whitesun Lars       165
     5 R5-D4                     97
     6 Yoda                      66
     7 Mon Mothma               150
     8 Wicket Systri Warrick     88
     9 Nien Nunb                160
    10 Watto                    137
    # ℹ 12 more rows
…
